{"success":true,"data":[{"inscricao_id":"5bdf6fe1-eaf1-421a-a6e6-e1d5fe814a06","status_inscricao":"NAO_SELECIONADO","origem_inscricao":"PLANILHA","criado_via_sistema":false,"data_inscricao":"2026-04-28T14:25:50+00:00","criado_em":"2026-04-28T22:45:17.183523+00:00","encontro_id":"6781a087-6a98-43fb-b7cb-6f5a13aee21e","encontro_nome":"EAC - Importação Inicial da Planilha Principal","encontro_numero":null,"encontro_status":"PLANEJADO","data_inicio_encontro":null,"data_fim_encontro":null,"adolescente_id":"27d15a82-86db-4347-a6db-d1579a0ae098","aceite_normas":true,"ja_fez_eac":false,"pessoa_adolescente_id":"e8baa660-1b0e-433a-b108-1e4059c36b85","nome_adolescente":"Maria Luísa Rodrigues Albuquerque","nome_adolescente_normalizado":"maria luisa rodrigues albuquerque","data_nascimento":"2012-05-06","idade_calculada":13,"telefone_adolescente":"5521979074461","telefone_adolescente_normalizado":"5521979074461","bairro":"Piratininga/Cafuba","observacoes":"Pessoa criada a partir da aba Respostas ao formulário 1.","vinculo_responsavel_id":null,"responsavel_principal":null,"grau_parentesco":null,"responsavel_id":null,"nome_responsavel":null,"telefone_responsavel":null,"telefone_responsavel_normalizado":null,"email_responsavel":null},{"inscricao_id":"d7733eb7-9e05-4c31-9758-bd399f7146f7","status_inscricao":"NAO_SELECIONADO","origem_inscricao":"PLANILHA","criado_via_sistema":false,"data_inscricao":"2026-04-24T21:02:50+00:00","criado_em":"2026-04-28T22:45:17.183523+00:00","encontro_id":"6781a087-6a98-43fb-b7cb-6f5a13aee21e","encontro_nome":"EAC - Importação Inicial da Planilha Principal","encontro_numero":null,"encontro_status":"PLANEJADO","data_inicio_encontro":null,"data_fim_encontro":null,"adolescente_id":"54fe649e-cd58-4879-b3bb-bff368c2f3a9","aceite_normas":true,"ja_fez_eac":false,"pessoa_adolescente_id":"c48a0c77-573f-45aa-9ebd-b5376ab0e078","nome_adolescente":"Giovanna Correia Nunes","nome_adolescente_normalizado":"giovanna correia nunes","data_nascimento":"2012-09-06","idade_calculada":13,"telefone_adolescente":"5521980531141","telefone_adolescente_normalizado":"5521980531141","bairro":"Santa Rosa","observacoes":"Pessoa criada a partir da aba Respostas ao formulário 1.","vinculo_responsavel_id":null,"responsavel_principal":null,"grau_parentesco":null,"responsavel_id":null,"nome_responsavel":null,"telefone_responsavel":null,"telefone_responsavel_normalizado":null,"email_responsavel":null},{"inscricao_id":"f33ab5ef-3081-4861-b9a5-6e6666e81592","status_inscricao":"NAO_SELECIONADO","origem_inscricao":"PLANILHA","criado_via_sistema":false,"data_inscricao":"2026-04-24T09:41:46+00:00","criado_em":"2026-04-28T22:45:17.183523+00:00","encontro_id":"6781a087-6a98-43fb-b7cb-6f5a13aee21e","encontro_nome":"EAC - Importação Inicial da Planilha Principal","encontro_numero":null,"encontro_status":"PLANEJADO","data_inicio_encontro":null,"data_fim_encontro":null,"adolescente_id":"14453681-af84-4203-a0f5-26e2ecb47791","aceite_normas":true,"ja_fez_eac":false,"pessoa_adolescente_id":"f5fa7b90-94e9-48a8-8a99-5554dc076bba","nome_adolescente":"Sophia Freire Ribeiro Franco Sepúlvida","nome_adolescente_normalizado":"sophia freire ribeiro franco sepulvida","data_nascimento":"2012-09-27","idade_calculada":13,"telefone_adolescente":"5521995979496","telefone_adolescente_normalizado":"5521995979496","bairro":"Fonseca","observacoes":"Pessoa criada a partir da aba Respostas ao formulário 1.","vinculo_responsavel_id":null,"responsavel_principal":null,"grau_parentesco":null,"responsavel_id":null,"nome_responsavel":null,"telefone_responsavel":null,"telefone_responsavel_normalizado":null,"email_responsavel":null},{"inscricao_id":"91156fc5-0d4b-42fe-8dca-cb50d7b3eb1b","status_inscricao":"NAO_SELECIONADO","origem_inscricao":"PLANILHA","criado_via_sistema":false,"data_inscricao":"2026-04-23T17:42:17+00:00","criado_em":"2026-04-28T22:45:17.183523+00:00","encontro_id":"6781a087-6a98-43fb-b7cb-6f5a13aee21e","encontro_nome":"EAC - Importação Inicial da Planilha Principal","encontro_numero":null,"encontro_status":"PLANEJADO","data_inicio_encontro":null,"data_fim_encontro":null,"adolescente_id":"7163261e-d066-463c-a971-b04fc3f6b541","aceite_normas":true,"ja_fez_eac":false,"pessoa_adolescente_id":"607775c3-d359-4226-ae43-c23f96df87cd","nome_adolescente":"Miguel de Freitas Chicralla","nome_adolescente_normalizado":"miguel de freitas chicralla","data_nascimento":"2009-10-19","idade_calculada":16,"telefone_adolescente":"5521979482985","telefone_adolescente_normalizado":"5521979482985","bairro":"Icaraí","observacoes":"Pessoa criada a partir da aba Respostas ao formulário 1.","vinculo_responsavel_id":null,"responsavel_principal":null,"grau_parentesco":null,"responsavel_id":null,"nome_responsavel":null,"telefone_responsavel":null,"telefone_responsavel_normalizado":null,"email_responsavel":null},{"inscricao_id":"5d65c2ce-e072-471e-a786-08b294a449eb","status_inscricao":"NAO_SELECIONADO","origem_inscricao":"PLANILHA","criado_via_sistema":false,"data_inscricao":"2026-04-22T22:27:24+00:00","criado_em":"2026-04-28T22:45:17.183523+00:00","encontro_id":"6781a087-6a98-43fb-b7cb-6f5a13aee21e","encontro_nome":"EAC - Importação Inicial da Planilha Principal","encontro_numero":null,"encontro_status":"PLANEJADO","data_inicio_encontro":null,"data_fim_encontro":null,"adolescente_id":"7a714927-2925-40ee-bb24-af568aad71d7","aceite_normas":true,"ja_fez_eac":false,"pessoa_adolescente_id":"e8944f61-5763-4711-953f-141adacba79e","nome_adolescente":"Manoela Porto Machado","nome_adolescente_normalizado":"manoela porto machado","data_nascimento":"2012-12-22","idade_calculada":13,"telefone_adolescente":"5521995825291","telefone_adolescente_normalizado":"5521995825291","bairro":"Icaraí","observacoes":"Pessoa criada a partir da aba Respostas ao formulário 1.","vinculo_responsavel_id":null,"responsavel_principal":null,"grau_parentesco":null,"responsavel_id":null,"nome_responsavel":null,"telefone_responsavel":null,"telefone_responsavel_normalizado":null,"email_responsavel":null},{"inscricao_id":"d14d7f24-8560-4ff9-a246-802fd28b8237","status_inscricao":"NAO_SELECIONADO","origem_inscricao":"PLANILHA","criado_via_sistema":false,"data_inscricao":"2026-04-19T17:58:40+00:00","criado_em":"2026-04-28T22:45:17.183523+00:00","encontro_id":"6781a087-6a98-43fb-b7cb-6f5a13aee21e","encontro_nome":"EAC - Importação Inicial da Planilha Principal","encontro_numero":null,"encontro_status":"PLANEJADO","data_inicio_encontro":null,"data_fim_encontro":null,"adolescente_id":"690c2c8e-7a25-4f5d-8f29-cdcab2a3dac3","aceite_normas":true,"ja_fez_eac":false,"pessoa_adolescente_id":"bed7b5ea-09db-4cb5-8001-2918b8a9fc56","nome_adolescente":"João Victor Pires Ferraz","nome_adolescente_normalizado":"joao victor pires ferraz","data_nascimento":"2012-12-20","idade_calculada":13,"telefone_adolescente":"5521999793686","telefone_adolescente_normalizado":"5521999793686","bairro":"Icaraí","observacoes":"Pessoa criada a partir da aba Respostas ao formulário 1.","vinculo_responsavel_id":null,"responsavel_principal":null,"grau_parentesco":null,"responsavel_id":null,"nome_responsavel":null,"telefone_responsavel":null,"telefone_responsavel_normalizado":null,"email_responsavel":null},{"inscricao_id":"28dbf3f6-b47a-4387-b0d6-50b5b92c8202","status_inscricao":"NAO_SELECIONADO","origem_inscricao":"PLANILHA","criado_via_sistema":false,"data_inscricao":"2026-04-19T00:18:58+00:00","criado_em":"2026-04-28T22:45:17.183523+00:00","encontro_id":"6781a087-6a98-43fb-b7cb-6f5a13aee21e","encontro_nome":"EAC - Importação Inicial da Planilha Principal","encontro_numero":null,"encontro_status":"PLANEJADO","data_inicio_encontro":null,"data_fim_encontro":null,"adolescente_id":"e92e43bb-dbd2-4128-af48-9ae9bd154e9d","aceite_normas":true,"ja_fez_eac":false,"pessoa_adolescente_id":"99092f16-583f-4cfa-b8d2-77b639776b9d","nome_adolescente":"Gabriel Borges Lins","nome_adolescente_normalizado":"gabriel borges lins","data_nascimento":"2010-01-10","idade_calculada":16,"telefone_adolescente":"5521971545626","telefone_adolescente_normalizado":"5521971545626","bairro":"Icaraí","observacoes":"Pessoa criada a partir da aba Respostas ao formulário 1.","vinculo_responsavel_id":null,"responsavel_principal":null,"grau_parentesco":null,"responsavel_id":null,"nome_responsavel":null,"telefone_responsavel":null,"telefone_responsavel_normalizado":null,"email_responsavel":null},{"inscricao_id":"120a90dc-718c-4f06-a906-cf9747b68022","status_inscricao":"NAO_SELECIONADO","origem_inscricao":"PLANILHA","criado_via_sistema":false,"data_inscricao":"2026-04-18T03:00:56+00:00","criado_em":"2026-04-28T22:45:17.183523+00:00","encontro_id":"6781a087-6a98-43fb-b7cb-6f5a13aee21e","encontro_nome":"EAC - Importação Inicial da Planilha Principal","encontro_numero":null,"encontro_status":"PLANEJADO","data_inicio_encontro":null,"data_fim_encontro":null,"adolescente_id":"dc3bb243-5942-40ad-b7d9-6ce2a6852951","aceite_normas":true,"ja_fez_eac":false,"pessoa_adolescente_id":"43a0449a-f423-4339-8480-1c277de27ab0","nome_adolescente":"Manuela Cantarella Marques Branquinho","nome_adolescente_normalizado":"manuela cantarella marques branquinho","data_nascimento":"2013-01-08","idade_calculada":13,"telefone_adolescente":"5521982733021","telefone_adolescente_normalizado":"5521982733021","bairro":"Icaraí","observacoes":"Pessoa criada a partir da aba Respostas ao formulário 1.","vinculo_responsavel_id":null,"responsavel_principal":null,"grau_parentesco":null,"responsavel_id":null,"nome_responsavel":null,"telefone_responsavel":null,"telefone_responsavel_normalizado":null,"email_responsavel":null},{"inscricao_id":"416949cc-bdec-494f-b958-d83bc680bfe2","status_inscricao":"NAO_SELECIONADO","origem_inscricao":"PLANILHA","criado_via_sistema":false,"data_inscricao":"2026-04-16T16:14:10+00:00","criado_em":"2026-04-28T22:45:17.183523+00:00","encontro_id":"6781a087-6a98-43fb-b7cb-6f5a13aee21e","encontro_nome":"EAC - Importação Inicial da Planilha Principal","encontro_numero":null,"encontro_status":"PLANEJADO","data_inicio_encontro":null,"data_fim_encontro":null,"adolescente_id":"e7c15d34-9bba-4b97-953b-1cd8c8d33bba","aceite_normas":true,"ja_fez_eac":false,"pessoa_adolescente_id":"10a4d825-8fdb-4879-8ee3-6a151e2623b8","nome_adolescente":"Valentina Borges Soares","nome_adolescente_normalizado":"valentina borges soares","data_nascimento":"2012-09-21","idade_calculada":13,"telefone_adolescente":"5521999981129","telefone_adolescente_normalizado":"5521999981129","bairro":"Icaraí","observacoes":"Pessoa criada a partir da aba Respostas ao formulário 1.","vinculo_responsavel_id":null,"responsavel_principal":null,"grau_parentesco":null,"responsavel_id":null,"nome_responsavel":null,"telefone_responsavel":null,"telefone_responsavel_normalizado":null,"email_responsavel":null},{"inscricao_id":"7e468662-aaa5-4fee-80e2-45135a3aa197","status_inscricao":"NAO_SELECIONADO","origem_inscricao":"PLANILHA","criado_via_sistema":false,"data_inscricao":"2026-04-13T17:54:51+00:00","criado_em":"2026-04-28T22:45:17.183523+00:00","encontro_id":"6781a087-6a98-43fb-b7cb-6f5a13aee21e","encontro_nome":"EAC - Importação Inicial da Planilha Principal","encontro_numero":null,"encontro_status":"PLANEJADO","data_inicio_encontro":null,"data_fim_encontro":null,"adolescente_id":"f716c23f-400a-4f02-978f-38b35272ed43","aceite_normas":true,"ja_fez_eac":false,"pessoa_adolescente_id":"49c1ab04-3cad-4787-bec0-4cbacea0f155","nome_adolescente":"Pedro Henrique dos Santos Fernandes","nome_adolescente_normalizado":"pedro henrique dos santos fernandes","data_nascimento":"2013-04-08","idade_calculada":13,"telefone_adolescente":"5521994289566","telefone_adolescente_normalizado":"5521994289566","bairro":"Centro","observacoes":"Pessoa criada a partir da aba Respostas ao formulário 1.","vinculo_responsavel_id":null,"responsavel_principal":null,"grau_parentesco":null,"responsavel_id":null,"nome_responsavel":null,"telefone_responsavel":null,"telefone_responsavel_normalizado":null,"email_responsavel":null},{"inscricao_id":"992b51a6-8407-4b7c-a12a-b4fbf1e4054d","status_inscricao":"NAO_SELECIONADO","origem_inscricao":"PLANILHA","criado_via_sistema":false,"data_inscricao":"2026-04-13T10:35:58+00:00","criado_em":"2026-04-28T22:45:17.183523+00:00","encontro_id":"6781a087-6a98-43fb-b7cb-6f5a13aee21e","encontro_nome":"EAC - Importação Inicial da Planilha Principal","encontro_numero":null,"encontro_status":"PLANEJADO","data_inicio_encontro":null,"data_fim_encontro":null,"adolescente_id":"e2d4457f-f256-459c-b284-1a2c83ea2d8d","aceite_normas":true,"ja_fez_eac":false,"pessoa_adolescente_id":"2b70f47a-73ea-40b6-89e9-d1995c2870cf","nome_adolescente":"Lia Bertanha de Azevedo lima","nome_adolescente_normalizado":"lia bertanha de azevedo lima","data_nascimento":"2012-12-31","idade_calculada":13,"telefone_adolescente":"5521983058734","telefone_adolescente_normalizado":"5521983058734","bairro":"Icaraí","observacoes":"Pessoa criada a partir da aba Respostas ao formulário 1.","vinculo_responsavel_id":null,"responsavel_principal":null,"grau_parentesco":null,"responsavel_id":null,"nome_responsavel":null,"telefone_responsavel":null,"telefone_responsavel_normalizado":null,"email_responsavel":null},{"inscricao_id":"b09026c6-eb70-43ac-a94c-9d76e26a2a4f","status_inscricao":"NAO_SELECIONADO","origem_inscricao":"PLANILHA","criado_via_sistema":false,"data_inscricao":"2026-04-12T21:48:29+00:00","criado_em":"2026-04-28T22:45:17.183523+00:00","encontro_id":"6781a087-6a98-43fb-b7cb-6f5a13aee21e","encontro_nome":"EAC - Importação Inicial da Planilha Principal","encontro_numero":null,"encontro_status":"PLANEJADO","data_inicio_encontro":null,"data_fim_encontro":null,"adolescente_id":"6c2b9d91-202f-409f-b6cd-3e3d1f00b1ef","aceite_normas":true,"ja_fez_eac":false,"pessoa_adolescente_id":"88d19d52-ea9d-4ae2-964f-8ee479839223","nome_adolescente":"Davi Perez Telles","nome_adolescente_normalizado":"davi perez telles","data_nascimento":"2009-12-22","idade_calculada":16,"telefone_adolescente":"5521967828101","telefone_adolescente_normalizado":"5521967828101","bairro":"Santa Rosa","observacoes":"Pessoa criada a partir da aba Respostas ao formulário 1.","vinculo_responsavel_id":null,"responsavel_principal":null,"grau_parentesco":null,"responsavel_id":null,"nome_responsavel":null,"telefone_responsavel":null,"telefone_responsavel_normalizado":null,"email_responsavel":null},{"inscricao_id":"78060b2e-6fc9-4e1b-9849-f2e9f467ef33","status_inscricao":"NAO_SELECIONADO","origem_inscricao":"PLANILHA","criado_via_sistema":false,"data_inscricao":"2026-04-12T15:44:00+00:00","criado_em":"2026-04-28T22:45:17.183523+00:00","encontro_id":"6781a087-6a98-43fb-b7cb-6f5a13aee21e","encontro_nome":"EAC - Importação Inicial da Planilha Principal","encontro_numero":null,"encontro_status":"PLANEJADO","data_inicio_encontro":null,"data_fim_encontro":null,"adolescente_id":"75df3084-ada5-47f0-883b-90e864e33fe3","aceite_normas":true,"ja_fez_eac":false,"pessoa_adolescente_id":"68a0cfb5-df8e-40cd-aff9-33eefec6fdb3","nome_adolescente":"Letícia Vaccari Alfradique","nome_adolescente_normalizado":"leticia vaccari alfradique","data_nascimento":"2014-02-17","idade_calculada":12,"telefone_adolescente":"5521999053478","telefone_adolescente_normalizado":"5521999053478","bairro":"Icaraí","observacoes":"Pessoa criada a partir da aba Respostas ao formulário 1.","vinculo_responsavel_id":null,"responsavel_principal":null,"grau_parentesco":null,"responsavel_id":null,"nome_responsavel":null,"telefone_responsavel":null,"telefone_responsavel_normalizado":null,"email_responsavel":null},{"inscricao_id":"74ee9278-2471-44d6-894a-2482f174b5ed","status_inscricao":"NAO_SELECIONADO","origem_inscricao":"PLANILHA","criado_via_sistema":false,"data_inscricao":"2026-04-11T15:15:06+00:00","criado_em":"2026-04-28T22:45:17.183523+00:00","encontro_id":"6781a087-6a98-43fb-b7cb-6f5a13aee21e","encontro_nome":"EAC - Importação Inicial da Planilha Principal","encontro_numero":null,"encontro_status":"PLANEJADO","data_inicio_encontro":null,"data_fim_encontro":null,"adolescente_id":"6d3ad2b4-42f7-4c18-89f7-701c62d776d9","aceite_normas":true,"ja_fez_eac":false,"pessoa_adolescente_id":"8bbf96b1-d80d-4baf-86c1-e1d70adb8656","nome_adolescente":"Larissa Iunes Barbosa da Conceição","nome_adolescente_normalizado":"larissa iunes barbosa da conceicao","data_nascimento":"2012-10-21","idade_calculada":13,"telefone_adolescente":"992219188","telefone_adolescente_normalizado":"992219188","bairro":"Icaraí","observacoes":"Pessoa criada a partir da aba Respostas ao formulário 1.","vinculo_responsavel_id":null,"responsavel_principal":null,"grau_parentesco":null,"responsavel_id":null,"nome_responsavel":null,"telefone_responsavel":null,"telefone_responsavel_normalizado":null,"email_responsavel":null},{"inscricao_id":"558cad88-7148-4dfd-9072-730631b27768","status_inscricao":"NAO_SELECIONADO","origem_inscricao":"PLANILHA","criado_via_sistema":false,"data_inscricao":"2026-04-06T14:22:18+00:00","criado_em":"2026-04-28T22:45:17.183523+00:00","encontro_id":"6781a087-6a98-43fb-b7cb-6f5a13aee21e","encontro_nome":"EAC - Importação Inicial da Planilha Principal","encontro_numero":null,"encontro_status":"PLANEJADO","data_inicio_encontro":null,"data_fim_encontro":null,"adolescente_id":"5f48b2f4-ff45-4b07-a51d-88ffb8074048","aceite_normas":true,"ja_fez_eac":false,"pessoa_adolescente_id":"b0a263ac-81a0-4619-9ad3-fba864f81765","nome_adolescente":"Maria Luiza Zuniga Miguez","nome_adolescente_normalizado":"maria luiza zuniga miguez","data_nascimento":"2010-03-29","idade_calculada":16,"telefone_adolescente":"552196827388","telefone_adolescente_normalizado":"552196827388","bairro":"Icaraí","observacoes":"Pessoa criada a partir da aba Respostas ao formulário 1.","vinculo_responsavel_id":null,"responsavel_principal":null,"grau_parentesco":null,"responsavel_id":null,"nome_responsavel":null,"telefone_responsavel":null,"telefone_responsavel_normalizado":null,"email_responsavel":null},{"inscricao_id":"868e58c8-b4e5-46de-a4b5-556f4e354a75","status_inscricao":"NAO_SELECIONADO","origem_inscricao":"PLANILHA","criado_via_sistema":false,"data_inscricao":"2026-04-05T22:10:00+00:00","criado_em":"2026-04-28T22:45:17.183523+00:00","encontro_id":"6781a087-6a98-43fb-b7cb-6f5a13aee21e","encontro_nome":"EAC - Importação Inicial da Planilha Principal","encontro_numero":null,"encontro_status":"PLANEJADO","data_inicio_encontro":null,"data_fim_encontro":null,"adolescente_id":"1ed3db2e-c909-4342-8a71-6606d987f38f","aceite_normas":true,"ja_fez_eac":false,"pessoa_adolescente_id":"18217ec3-3a8d-48bb-b0b0-a98ad2c6c5b5","nome_adolescente":"Maria Beatriz Arantes de Brito","nome_adolescente_normalizado":"maria beatriz arantes de brito","data_nascimento":"2009-05-25","idade_calculada":16,"telefone_adolescente":"5521977808484","telefone_adolescente_normalizado":"5521977808484","bairro":"Santa Rosa","observacoes":"Pessoa criada a partir da aba Respostas ao formulário 1.","vinculo_responsavel_id":null,"responsavel_principal":null,"grau_parentesco":null,"responsavel_id":null,"nome_responsavel":null,"telefone_responsavel":null,"telefone_responsavel_normalizado":null,"email_responsavel":null},{"inscricao_id":"83bdde6a-0736-49c0-bf41-05c6e21ab376","status_inscricao":"NAO_SELECIONADO","origem_inscricao":"PLANILHA","criado_via_sistema":false,"data_inscricao":"2026-04-05T12:25:41+00:00","criado_em":"2026-04-28T22:45:17.183523+00:00","encontro_id":"6781a087-6a98-43fb-b7cb-6f5a13aee21e","encontro_nome":"EAC - Importação Inicial da Planilha Principal","encontro_numero":null,"encontro_status":"PLANEJADO","data_inicio_encontro":null,"data_fim_encontro":null,"adolescente_id":"04ea55d9-f453-4b61-a576-5c20e4c4ea87","aceite_normas":true,"ja_fez_eac":false,"pessoa_adolescente_id":"8d763435-253c-4c59-a19d-2877e193d21d","nome_adolescente":"Davi de Barros Macedo","nome_adolescente_normalizado":"davi de barros macedo","data_nascimento":"2012-12-20","idade_calculada":13,"telefone_adolescente":"5521981310001","telefone_adolescente_normalizado":"5521981310001","bairro":"Icaraí","observacoes":"Pessoa criada a partir da aba Respostas ao formulário 1.","vinculo_responsavel_id":null,"responsavel_principal":null,"grau_parentesco":null,"responsavel_id":null,"nome_responsavel":null,"telefone_responsavel":null,"telefone_responsavel_normalizado":null,"email_responsavel":null},{"inscricao_id":"2b4c841c-bfdd-4f3d-adc6-96e0fa26bce3","status_inscricao":"NAO_SELECIONADO","origem_inscricao":"PLANILHA","criado_via_sistema":false,"data_inscricao":"2026-04-02T20:30:17+00:00","criado_em":"2026-04-28T22:45:17.183523+00:00","encontro_id":"6781a087-6a98-43fb-b7cb-6f5a13aee21e","encontro_nome":"EAC - Importação Inicial da Planilha Principal","encontro_numero":null,"encontro_status":"PLANEJADO","data_inicio_encontro":null,"data_fim_encontro":null,"adolescente_id":"565e40b2-1447-45e5-a29f-37ab590f594a","aceite_normas":true,"ja_fez_eac":false,"pessoa_adolescente_id":"e6f4fe34-f60b-463b-a225-268afbc0a8f1","nome_adolescente":"LUÍSA ABREU DE AGUIAR","nome_adolescente_normalizado":"luisa abreu de aguiar","data_nascimento":"2013-05-07","idade_calculada":12,"telefone_adolescente":"5521967731067","telefone_adolescente_normalizado":"5521967731067","bairro":"Santa Rosa","observacoes":"Pessoa criada a partir da aba Respostas ao formulário 1.","vinculo_responsavel_id":null,"responsavel_principal":null,"grau_parentesco":null,"responsavel_id":null,"nome_responsavel":null,"telefone_responsavel":null,"telefone_responsavel_normalizado":null,"email_responsavel":null},{"inscricao_id":"5ced6f30-8fc7-4118-bca3-a7aeaecf9be2","status_inscricao":"NAO_SELECIONADO","origem_inscricao":"PLANILHA","criado_via_sistema":false,"data_inscricao":"2026-04-01T21:59:46+00:00","criado_em":"2026-04-28T22:45:17.183523+00:00","encontro_id":"6781a087-6a98-43fb-b7cb-6f5a13aee21e","encontro_nome":"EAC - Importação Inicial da Planilha Principal","encontro_numero":null,"encontro_status":"PLANEJADO","data_inicio_encontro":null,"data_fim_encontro":null,"adolescente_id":"8036c295-e080-4119-8ee5-de3ec76a1101","aceite_normas":true,"ja_fez_eac":false,"pessoa_adolescente_id":"a7f6ad37-f2ee-4567-b409-b1c5ddc8bff8","nome_adolescente":"Mariana Oliveira Lannes Pelegrino","nome_adolescente_normalizado":"mariana oliveira lannes pelegrino","data_nascimento":"2010-06-28","idade_calculada":15,"telefone_adolescente":"5521970265662","telefone_adolescente_normalizado":"5521970265662","bairro":"Icaraí","observacoes":"Pessoa criada a partir da aba Respostas ao formulário 1.","vinculo_responsavel_id":null,"responsavel_principal":null,"grau_parentesco":null,"responsavel_id":null,"nome_responsavel":null,"telefone_responsavel":null,"telefone_responsavel_normalizado":null,"email_responsavel":null},{"inscricao_id":"8588f49a-fd45-4502-a777-e1f0b2652fd2","status_inscricao":"NAO_SELECIONADO","origem_inscricao":"PLANILHA","criado_via_sistema":false,"data_inscricao":"2026-04-01T03:32:07+00:00","criado_em":"2026-04-28T22:45:17.183523+00:00","encontro_id":"6781a087-6a98-43fb-b7cb-6f5a13aee21e","encontro_nome":"EAC - Importação Inicial da Planilha Principal","encontro_numero":null,"encontro_status":"PLANEJADO","data_inicio_encontro":null,"data_fim_encontro":null,"adolescente_id":"6d2f4e3b-b7d1-4240-8edf-8e28fc697d26","aceite_normas":true,"ja_fez_eac":false,"pessoa_adolescente_id":"d15b521e-fe22-40b3-8d30-47c6e0becf82","nome_adolescente":"Pedro Boechat Alves","nome_adolescente_normalizado":"pedro boechat alves","data_nascimento":"2012-06-10","idade_calculada":13,"telefone_adolescente":"5521996160475","telefone_adolescente_normalizado":"5521996160475","bairro":"Icaraí","observacoes":"Pessoa criada a partir da aba Respostas ao formulário 1.","vinculo_responsavel_id":null,"responsavel_principal":null,"grau_parentesco":null,"responsavel_id":null,"nome_responsavel":null,"telefone_responsavel":null,"telefone_responsavel_normalizado":null,"email_responsavel":null},{"inscricao_id":"bd8bf74a-3438-4614-b29c-3a99f082826c","status_inscricao":"NAO_SELECIONADO","origem_inscricao":"PLANILHA","criado_via_sistema":false,"data_inscricao":"2026-03-31T17:51:17+00:00","criado_em":"2026-04-28T22:45:17.183523+00:00","encontro_id":"6781a087-6a98-43fb-b7cb-6f5a13aee21e","encontro_nome":"EAC - Importação Inicial da Planilha Principal","encontro_numero":null,"encontro_status":"PLANEJADO","data_inicio_encontro":null,"data_fim_encontro":null,"adolescente_id":"95ce2a25-cae1-4726-a13a-3391f29b13bf","aceite_normas":true,"ja_fez_eac":false,"pessoa_adolescente_id":"210561a6-478f-4caf-b73b-c202f0170c45","nome_adolescente":"Raphael Rodrigues Maia","nome_adolescente_normalizado":"raphael rodrigues maia","data_nascimento":"2013-04-29","idade_calculada":12,"telefone_adolescente":"5521980477362","telefone_adolescente_normalizado":"5521980477362","bairro":"Icaraí","observacoes":"Pessoa criada a partir da aba Respostas ao formulário 1.","vinculo_responsavel_id":null,"responsavel_principal":null,"grau_parentesco":null,"responsavel_id":null,"nome_responsavel":null,"telefone_responsavel":null,"telefone_responsavel_normalizado":null,"email_responsavel":null},{"inscricao_id":"921e1ebe-aa2e-413c-b42a-96e488a5f802","status_inscricao":"NAO_SELECIONADO","origem_inscricao":"PLANILHA","criado_via_sistema":false,"data_inscricao":"2026-03-30T23:53:47+00:00","criado_em":"2026-04-28T22:45:17.183523+00:00","encontro_id":"6781a087-6a98-43fb-b7cb-6f5a13aee21e","encontro_nome":"EAC - Importação Inicial da Planilha Principal","encontro_numero":null,"encontro_status":"PLANEJADO","data_inicio_encontro":null,"data_fim_encontro":null,"adolescente_id":"8369048a-94b2-488b-9f16-f2632ffa8ca8","aceite_normas":true,"ja_fez_eac":false,"pessoa_adolescente_id":"e6d8a7e1-3d6e-4f89-b373-c64552afea8c","nome_adolescente":"Maria Clara Cardoso Figueiredo","nome_adolescente_normalizado":"maria clara cardoso figueiredo","data_nascimento":"2012-11-05","idade_calculada":13,"telefone_adolescente":"5521995498375","telefone_adolescente_normalizado":"5521995498375","bairro":"Icaraí","observacoes":"Pessoa criada a partir da aba Respostas ao formulário 1.","vinculo_responsavel_id":null,"responsavel_principal":null,"grau_parentesco":null,"responsavel_id":null,"nome_responsavel":null,"telefone_responsavel":null,"telefone_responsavel_normalizado":null,"email_responsavel":null},{"inscricao_id":"3830dfb1-8f67-4d3e-8833-22e43f73b4dc","status_inscricao":"NAO_SELECIONADO","origem_inscricao":"PLANILHA","criado_via_sistema":false,"data_inscricao":"2026-03-30T22:47:17+00:00","criado_em":"2026-04-28T22:45:17.183523+00:00","encontro_id":"6781a087-6a98-43fb-b7cb-6f5a13aee21e","encontro_nome":"EAC - Importação Inicial da Planilha Principal","encontro_numero":null,"encontro_status":"PLANEJADO","data_inicio_encontro":null,"data_fim_encontro":null,"adolescente_id":"d3b0ff31-9512-45a8-acac-f4a2b085ae43","aceite_normas":true,"ja_fez_eac":false,"pessoa_adolescente_id":"f2bf4230-17d0-4362-aecf-94b7c33ffaa5","nome_adolescente":"Eric de Souza Fontes Busson","nome_adolescente_normalizado":"eric de souza fontes busson","data_nascimento":"2014-05-27","idade_calculada":11,"telefone_adolescente":"5521991919277","telefone_adolescente_normalizado":"5521991919277","bairro":"Icaraí","observacoes":"Pessoa criada a partir da aba Respostas ao formulário 1.","vinculo_responsavel_id":null,"responsavel_principal":null,"grau_parentesco":null,"responsavel_id":null,"nome_responsavel":null,"telefone_responsavel":null,"telefone_responsavel_normalizado":null,"email_responsavel":null},{"inscricao_id":"f8558996-ff5b-4baf-a71d-34cb0155ba43","status_inscricao":"NAO_SELECIONADO","origem_inscricao":"PLANILHA","criado_via_sistema":false,"data_inscricao":"2026-03-30T22:46:32+00:00","criado_em":"2026-04-28T22:45:17.183523+00:00","encontro_id":"6781a087-6a98-43fb-b7cb-6f5a13aee21e","encontro_nome":"EAC - Importação Inicial da Planilha Principal","encontro_numero":null,"encontro_status":"PLANEJADO","data_inicio_encontro":null,"data_fim_encontro":null,"adolescente_id":"f0846720-82ca-485e-900c-25905fc0ad6a","aceite_normas":true,"ja_fez_eac":false,"pessoa_adolescente_id":"66cf765f-50ff-4c92-9538-fb38a58afa62","nome_adolescente":"Miguel Cavalcante Maciel Rodrigues Braga","nome_adolescente_normalizado":"miguel cavalcante maciel rodrigues braga","data_nascimento":"2012-10-19","idade_calculada":13,"telefone_adolescente":"5521974335926","telefone_adolescente_normalizado":"5521974335926","bairro":"São Francisco","observacoes":"Pessoa criada a partir da aba Respostas ao formulário 1.","vinculo_responsavel_id":null,"responsavel_principal":null,"grau_parentesco":null,"responsavel_id":null,"nome_responsavel":null,"telefone_responsavel":null,"telefone_responsavel_normalizado":null,"email_responsavel":null},{"inscricao_id":"3104381b-f296-4006-8b5e-a172f6077246","status_inscricao":"PRIORIZADO","origem_inscricao":"PLANILHA","criado_via_sistema":false,"data_inscricao":"2026-03-30T20:09:15+00:00","criado_em":"2026-04-28T22:45:17.183523+00:00","encontro_id":"6781a087-6a98-43fb-b7cb-6f5a13aee21e","encontro_nome":"EAC - Importação Inicial da Planilha Principal","encontro_numero":null,"encontro_status":"PLANEJADO","data_inicio_encontro":null,"data_fim_encontro":null,"adolescente_id":"0bd23cf5-1d5c-4035-ae55-a2155539ae64","aceite_normas":true,"ja_fez_eac":false,"pessoa_adolescente_id":"0f0bc075-0975-4bfd-b2fe-f3b6d9747a4d","nome_adolescente":"Lucas de Faro Alvim","nome_adolescente_normalizado":"lucas de faro alvim","data_nascimento":"2012-11-05","idade_calculada":13,"telefone_adolescente":"5521985714640","telefone_adolescente_normalizado":"5521985714640","bairro":"Piratininga","observacoes":"Pessoa criada a partir da aba Respostas ao formulário 1.","vinculo_responsavel_id":null,"responsavel_principal":null,"grau_parentesco":null,"responsavel_id":null,"nome_responsavel":null,"telefone_responsavel":null,"telefone_responsavel_normalizado":null,"email_responsavel":null}],"summary":{"total":278,"por_status":{"CANCELADO":1,"INSCRITO":62,"NAO_SELECIONADO":138,"PRIORIZADO":77}},"pagination":{"page":1,"page_size":25,"total":278,"total_pages":12}}